{
    "prepare_queue": {
        "installed": [],
        "uninstalled": []
    },
    "config_munge": {
        "files": {}
    },
    "installed_plugins": {
        "cordova-plugin-background-mode": {
            "PACKAGE_NAME": "org.metti.deepSleep"
        },
        "cordova-plugin-whitelist": {
            "PACKAGE_NAME": "org.metti.deepSleep"
        },
        "cordova-plugin-nativeaudio": {
            "PACKAGE_NAME": "org.metti.deepSleep"
        }
    },
    "dependent_plugins": {
        "cordova-plugin-device": {
            "PACKAGE_NAME": "org.metti.deepSleep"
        }
    }
}